final-project
…
### MAKE THE DATA FRAME ###
#Lastly, we take all the vectors we made and put it into a data frame to make the table
#Now that we have this table, let's take a look at the data. We can use different graphs to see the relationships between different parts of the data

df <- data.frame(rankC,personC,resultC,citizenC,competitionC,stringsAsFactors=FALSE)
names(df) <- c("Rank","Person","Result","Citizen of", "Competition")
df$Result <- as.double(as.character(df$Result)) #change the type of result to double
df$Rank <- as.integer(as.character(df$Rank)) #change the type of rank to integer
as.tibble(df)

## # A tibble: 292 x 5
##     Rank Person            Result `Citizen of`      Competition           
##    <int> <chr>              <dbl> <chr>             <chr>                 
##  1     1 Feliks Zemdegs      4.22 Australia         Cube for Cambodia 201~
##  2     2 "SeungBeom Cho "    4.59 Republic of Korea ChicaGhosts 2017     
##  3     3 Patrick Ponce       4.69 United States     Rally In The Valley 2~
##  4     4 Mats Valk           4.74 Netherlands       Jawa Timur Open 2016 
##  5     5 Bill Wang           4.76 Canada            Pickering Spring 2018
##  6     6 " Drew Brads"      4.76 United States     Bluegrass Spring 2017
##  7     7 Max Park            4.78 United States     Skillcon 2017        
##  8     8 Blake Thompson      4.86 United States     Queen City 2017      
##  9     9 Antonie Paterakis   4.89 Greece            The Hague Open 2017  
## 10    10 Lucas Etter         4.90 United States     River Hill Fall 2015 
## # ... with 282 more rows

### ADDING A YEAR COLUMN ###

#Now that we have this table, let's take a look at the data. We can use different graphs to see the relationships between different parts of the data

# there are two main ways that we will start looking at the data: How peoples time relate to the year in which their solved happened, and how peoples' solves relate to each other

#The first thing we can look at is look at all the times across the years and see if there is a trend of people getting faster. To do this we must first make a new column, year.

df["Year"] <- str_extract(df$Competition,"\\d{4}") #get the year, make a new column
df$Year <- as.integer(as.character(df$Year)) #change the type of year to integer
df[136,]$Year <- "2017" # the year got skipped while scraping, so I am manually adding it in back here
as.tibble(df)

## # A tibble: 292 x 6
##     Rank Person            Result `Citizen of`      Competition      Year 
##    <int> <chr>              <dbl> <chr>             <chr>            <chr>
##  1     1 Feliks Zemdegs      4.22 Australia         Cube for Cambod~ 2018 
##  2     2 "SeungBeom Cho "    4.59 Republic of Korea ChicaGhosts 201~ 2017 
##  3     3 Patrick Ponce       4.69 United States     Rally In The Va~ 2017 
##  4     4 Mats Valk           4.74 Netherlands       Jawa Timur Open~ 2016 
##  5     5 Bill Wang           4.76 Canada            Pickering Sprin~ 2018 
##  6     6 " Drew Brads"      4.76 United States     Bluegrass Sprin~ 2017 
##  7     7 Max Park            4.78 United States     Skillcon 2017   2017 
##  8     8 Blake Thompson      4.86 United States     Queen City 2017 2017 
##  9     9 Antonie Paterakis   4.89 Greece            The Hague Open ~ 2017 
## 10    10 Lucas Etter         4.90 United States     River Hill Fall~ 2015 
## # ... with 282 more rows
…
### MAKE US AND "EVERYONE ELSE" TABLE" ###
#originally, I wanted to look at the data betwen women and men, and see which gender had better statistics. But in the top 300 there were only 6 women competitors I could find, so I instead decide to look at how the U.S. stood up to the rest of the world in term of speedcubing ability.

### MAKE THE US TABLE
US <-  character()
for(curr in 1:nrow(df)){ # find evert row that has a cuber from the U.S.
  if(df[curr,]$`Citizen of` == "United States"){
    US <- c(US,curr)
  }
}

US_df <- df[US,] #copy all those rows into a new daat frame
as.tibble(US_df)

## # A tibble: 86 x 6
##     Rank Person         Result `Citizen of`  Competition              Year
##  * <int> <chr>           <dbl> <chr>         <chr>                   <dbl>
##  1     3 Patrick Ponce    4.69 United States Rally In The Valley 20~  2017
##  2     6 " Drew Brads"   4.76 United States Bluegrass Spring 2017   2017
##  3     7 Max Park         4.78 United States Skillcon 2017           2017
##  4     8 Blake Thompson   4.86 United States Queen City 2017         2017
##  5    10 Lucas Etter      4.90 United States River Hill Fall 2015    2015
##  6    15 Keaton Ellis     5.08 United States Slow N Steady Summer 2~  2017
##  7    18 Rami Sbahi       5.22 United States Shaker Fall 2016        2016
##  8    20 Collin Burns     5.25 United States Doylestown Spring 2015  2015
##  9    22 Dana Yi          5.37 United States Slow N Steady Summer 2~  2017
## 10    28 " Jeff Park"    5.52 United States Maryland 2017           2017
## # ... with 76 more rows

### MAKE THE NON-US TABLE ###
US <- paste("-",US,sep="") # add a minus to each item in the string
US <- as.integer(as.character(US))

NON_US_df <- df[US,] # remove each US item
as.tibble(NON_US_df)

## # A tibble: 206 x 6
##     Rank Person               Result `Citizen of`      Competition    Year
##  * <int> <chr>                 <dbl> <chr>             <chr>         <dbl>
##  1     1 Feliks Zemdegs         4.22 Australia         Cube for Cam~  2018
##  2     2 "SeungBeom Cho "       4.59 Republic of Korea ChicaGhosts ~  2017
##  3     4 Mats Valk              4.74 Netherlands       Jawa Timur O~  2016
##  4     5 Bill Wang              4.76 Canada            Pickering Sp~  2018
##  5     9 Antonie Paterakis      4.89 Greece            The Hague Op~  2017
##  6    11 " Seung Hyuk Nahm "   4.90 Republic of Korea China Champi~  2017
##  7    12 "Hyo-Min Seo "         4.94 Republic of Korea Korean Champ~  2016
##  8    13 " Kevin Gerhardt"     4.94 Germany           German Natio~  2017
##  9    14 Philipp Weyer          5.05 Germany           German Natio~  2017
## 10    16 Alexandre Carlier      5.19 France            France 2018   2018
## # ... with 196 more rows
…
